^D:\LEARNING\II_COURSE\TERM 2\OS\CPPLAB2\STATICDLLIMPORT\STDAFX.CPP
D:\LEARNING\II_COURSE\TERM 2\OS\CPPLAB2\STATICDLLIMPORT\DEBUG\STATICDLLIMPORT.PCH
D:\LEARNING\II_COURSE\TERM 2\OS\CPPLAB2\STATICDLLIMPORT\DEBUG\VC140.PDB
D:\LEARNING\II_COURSE\TERM 2\OS\CPPLAB2\STATICDLLIMPORT\DEBUG\VC140.IDB
D:\LEARNING\II_COURSE\TERM 2\OS\CPPLAB2\STATICDLLIMPORT\DEBUG\STDAFX.OBJ
^D:\LEARNING\II_COURSE\TERM 2\OS\CPPLAB2\STATICDLLIMPORT\STATICDLLIMPORT.CPP
D:\LEARNING\II_COURSE\TERM 2\OS\CPPLAB2\STATICDLLIMPORT\DEBUG\VC140.PDB
D:\LEARNING\II_COURSE\TERM 2\OS\CPPLAB2\STATICDLLIMPORT\DEBUG\VC140.IDB
D:\LEARNING\II_COURSE\TERM 2\OS\CPPLAB2\STATICDLLIMPORT\DEBUG\STATICDLLIMPORT.OBJ
