^D:\LEARNING\II_COURSE\TERM 2\OS\LABS\CPPLAB2\DLL\X64\DEBUG\DLL.OBJ|D:\LEARNING\II_COURSE\TERM 2\OS\LABS\CPPLAB2\DLL\X64\DEBUG\DLLMAIN.OBJ|D:\LEARNING\II_COURSE\TERM 2\OS\LABS\CPPLAB2\DLL\X64\DEBUG\STDAFX.OBJ
D:\LEARNING\II_COURSE\TERM 2\OS\LABS\CPPLAB2\X64\DEBUG\DLL.ILK
D:\LEARNING\II_COURSE\TERM 2\OS\LABS\CPPLAB2\X64\DEBUG\DLL.DLL
D:\LEARNING\II_COURSE\TERM 2\OS\LABS\CPPLAB2\X64\DEBUG\DLL.PDB
