^D:\LEARNING\II_COURSE\TERM 2\OS\LABS\CPPLAB2\DYNAMICDLLIMPORT\X64\DEBUG\DYNAMICDLLIMPORT.OBJ|D:\LEARNING\II_COURSE\TERM 2\OS\LABS\CPPLAB2\DYNAMICDLLIMPORT\X64\DEBUG\STDAFX.OBJ
D:\LEARNING\II_COURSE\TERM 2\OS\LABS\CPPLAB2\X64\DEBUG\DYNAMICDLLIMPORT.ILK
D:\LEARNING\II_COURSE\TERM 2\OS\LABS\CPPLAB2\X64\DEBUG\DYNAMICDLLIMPORT.EXE
D:\LEARNING\II_COURSE\TERM 2\OS\LABS\CPPLAB2\X64\DEBUG\DYNAMICDLLIMPORT.PDB
