^D:\LEARNING\II_COURSE\TERM 2\OS\CPPLAB2\DLL\DEBUG\DLL.OBJ|D:\LEARNING\II_COURSE\TERM 2\OS\CPPLAB2\DLL\DEBUG\DLLMAIN.OBJ|D:\LEARNING\II_COURSE\TERM 2\OS\CPPLAB2\DLL\DEBUG\STDAFX.OBJ
D:\LEARNING\II_COURSE\TERM 2\OS\CPPLAB2\DEBUG\DLL.ILK
D:\LEARNING\II_COURSE\TERM 2\OS\CPPLAB2\DEBUG\DLL.DLL
D:\LEARNING\II_COURSE\TERM 2\OS\CPPLAB2\DEBUG\DLL.PDB
