^D:\LEARNING\II_COURSE\TERM 2\OS\LABS\CPPLAB2\RESOURCESRU\X64\DEBUG\RESOURCESRU.RES
D:\LEARNING\II_COURSE\TERM 2\OS\LABS\CPPLAB2\X64\DEBUG\RESOURCESRU.ILK
D:\LEARNING\II_COURSE\TERM 2\OS\LABS\CPPLAB2\X64\DEBUG\RESOURCESRU.DLL
D:\LEARNING\II_COURSE\TERM 2\OS\LABS\CPPLAB2\X64\DEBUG\RESOURCESRU.PDB
